dump.vcd
$date
	Mon Jul 13 14:24:22 2020
$end
$version
	QuestaSim Version 10.4e
$end
$timescale
	1ns
$end

$scope module pkt_tb_top $end
$var reg 1 ! clk $end
$var reg 1 " rstN $end
$var wire 1 # inDataA [31] $end
$var wire 1 $ inDataA [30] $end
$var wire 1 % inDataA [29] $end
$var wire 1 & inDataA [28] $end
$var wire 1 ' inDataA [27] $end
$var wire 1 ( inDataA [26] $end
$var wire 1 ) inDataA [25] $end
$var wire 1 * inDataA [24] $end
$var wire 1 + inDataA [23] $end
$var wire 1 , inDataA [22] $end
$var wire 1 - inDataA [21] $end
$var wire 1 . inDataA [20] $end
$var wire 1 / inDataA [19] $end
$var wire 1 0 inDataA [18] $end
$var wire 1 1 inDataA [17] $end
$var wire 1 2 inDataA [16] $end
$var wire 1 3 inDataA [15] $end
$var wire 1 4 inDataA [14] $end
$var wire 1 5 inDataA [13] $end
$var wire 1 6 inDataA [12] $end
$var wire 1 7 inDataA [11] $end
$var wire 1 8 inDataA [10] $end
$var wire 1 9 inDataA [9] $end
$var wire 1 : inDataA [8] $end
$var wire 1 ; inDataA [7] $end
$var wire 1 < inDataA [6] $end
$var wire 1 = inDataA [5] $end
$var wire 1 > inDataA [4] $end
$var wire 1 ? inDataA [3] $end
$var wire 1 @ inDataA [2] $end
$var wire 1 A inDataA [1] $end
$var wire 1 B inDataA [0] $end
$var wire 1 C sopAi $end
$var wire 1 D eopAi $end
$var wire 1 E inDataB [31] $end
$var wire 1 F inDataB [30] $end
$var wire 1 G inDataB [29] $end
$var wire 1 H inDataB [28] $end
$var wire 1 I inDataB [27] $end
$var wire 1 J inDataB [26] $end
$var wire 1 K inDataB [25] $end
$var wire 1 L inDataB [24] $end
$var wire 1 M inDataB [23] $end
$var wire 1 N inDataB [22] $end
$var wire 1 O inDataB [21] $end
$var wire 1 P inDataB [20] $end
$var wire 1 Q inDataB [19] $end
$var wire 1 R inDataB [18] $end
$var wire 1 S inDataB [17] $end
$var wire 1 T inDataB [16] $end
$var wire 1 U inDataB [15] $end
$var wire 1 V inDataB [14] $end
$var wire 1 W inDataB [13] $end
$var wire 1 X inDataB [12] $end
$var wire 1 Y inDataB [11] $end
$var wire 1 Z inDataB [10] $end
$var wire 1 [ inDataB [9] $end
$var wire 1 \ inDataB [8] $end
$var wire 1 ] inDataB [7] $end
$var wire 1 ^ inDataB [6] $end
$var wire 1 _ inDataB [5] $end
$var wire 1 ` inDataB [4] $end
$var wire 1 a inDataB [3] $end
$var wire 1 b inDataB [2] $end
$var wire 1 c inDataB [1] $end
$var wire 1 d inDataB [0] $end
$var wire 1 e sopBi $end
$var wire 1 f eopBi $end
$var wire 1 g outDataA [31] $end
$var wire 1 h outDataA [30] $end
$var wire 1 i outDataA [29] $end
$var wire 1 j outDataA [28] $end
$var wire 1 k outDataA [27] $end
$var wire 1 l outDataA [26] $end
$var wire 1 m outDataA [25] $end
$var wire 1 n outDataA [24] $end
$var wire 1 o outDataA [23] $end
$var wire 1 p outDataA [22] $end
$var wire 1 q outDataA [21] $end
$var wire 1 r outDataA [20] $end
$var wire 1 s outDataA [19] $end
$var wire 1 t outDataA [18] $end
$var wire 1 u outDataA [17] $end
$var wire 1 v outDataA [16] $end
$var wire 1 w outDataA [15] $end
$var wire 1 x outDataA [14] $end
$var wire 1 y outDataA [13] $end
$var wire 1 z outDataA [12] $end
$var wire 1 { outDataA [11] $end
$var wire 1 | outDataA [10] $end
$var wire 1 } outDataA [9] $end
$var wire 1 ~ outDataA [8] $end
$var wire 1 !! outDataA [7] $end
$var wire 1 "! outDataA [6] $end
$var wire 1 #! outDataA [5] $end
$var wire 1 $! outDataA [4] $end
$var wire 1 %! outDataA [3] $end
$var wire 1 &! outDataA [2] $end
$var wire 1 '! outDataA [1] $end
$var wire 1 (! outDataA [0] $end
$var wire 1 )! sopAo $end
$var wire 1 *! eopAo $end
$var wire 1 +! outDataB [31] $end
$var wire 1 ,! outDataB [30] $end
$var wire 1 -! outDataB [29] $end
$var wire 1 .! outDataB [28] $end
$var wire 1 /! outDataB [27] $end
$var wire 1 0! outDataB [26] $end
$var wire 1 1! outDataB [25] $end
$var wire 1 2! outDataB [24] $end
$var wire 1 3! outDataB [23] $end
$var wire 1 4! outDataB [22] $end
$var wire 1 5! outDataB [21] $end
$var wire 1 6! outDataB [20] $end
$var wire 1 7! outDataB [19] $end
$var wire 1 8! outDataB [18] $end
$var wire 1 9! outDataB [17] $end
$var wire 1 :! outDataB [16] $end
$var wire 1 ;! outDataB [15] $end
$var wire 1 <! outDataB [14] $end
$var wire 1 =! outDataB [13] $end
$var wire 1 >! outDataB [12] $end
$var wire 1 ?! outDataB [11] $end
$var wire 1 @! outDataB [10] $end
$var wire 1 A! outDataB [9] $end
$var wire 1 B! outDataB [8] $end
$var wire 1 C! outDataB [7] $end
$var wire 1 D! outDataB [6] $end
$var wire 1 E! outDataB [5] $end
$var wire 1 F! outDataB [4] $end
$var wire 1 G! outDataB [3] $end
$var wire 1 H! outDataB [2] $end
$var wire 1 I! outDataB [1] $end
$var wire 1 J! outDataB [0] $end
$var wire 1 K! sopBo $end
$var wire 1 L! eopBo $end
$var wire 1 M! portAStall $end
$var wire 1 N! portBStall $end

$scope module eth_sw1 $end
$var wire 1 O! clk $end
$var wire 1 P! rstN $end
$var wire 1 # inDataA [31] $end
$var wire 1 $ inDataA [30] $end
$var wire 1 % inDataA [29] $end
$var wire 1 & inDataA [28] $end
$var wire 1 ' inDataA [27] $end
$var wire 1 ( inDataA [26] $end
$var wire 1 ) inDataA [25] $end
$var wire 1 * inDataA [24] $end
$var wire 1 + inDataA [23] $end
$var wire 1 , inDataA [22] $end
$var wire 1 - inDataA [21] $end
$var wire 1 . inDataA [20] $end
$var wire 1 / inDataA [19] $end
$var wire 1 0 inDataA [18] $end
$var wire 1 1 inDataA [17] $end
$var wire 1 2 inDataA [16] $end
$var wire 1 3 inDataA [15] $end
$var wire 1 4 inDataA [14] $end
$var wire 1 5 inDataA [13] $end
$var wire 1 6 inDataA [12] $end
$var wire 1 7 inDataA [11] $end
$var wire 1 8 inDataA [10] $end
$var wire 1 9 inDataA [9] $end
$var wire 1 : inDataA [8] $end
$var wire 1 ; inDataA [7] $end
$var wire 1 < inDataA [6] $end
$var wire 1 = inDataA [5] $end
$var wire 1 > inDataA [4] $end
$var wire 1 ? inDataA [3] $end
$var wire 1 @ inDataA [2] $end
$var wire 1 A inDataA [1] $end
$var wire 1 B inDataA [0] $end
$var wire 1 C sopAi $end
$var wire 1 D eopAi $end
$var wire 1 E inDataB [31] $end
$var wire 1 F inDataB [30] $end
$var wire 1 G inDataB [29] $end
$var wire 1 H inDataB [28] $end
$var wire 1 I inDataB [27] $end
$var wire 1 J inDataB [26] $end
$var wire 1 K inDataB [25] $end
$var wire 1 L inDataB [24] $end
$var wire 1 M inDataB [23] $end
$var wire 1 N inDataB [22] $end
$var wire 1 O inDataB [21] $end
$var wire 1 P inDataB [20] $end
$var wire 1 Q inDataB [19] $end
$var wire 1 R inDataB [18] $end
$var wire 1 S inDataB [17] $end
$var wire 1 T inDataB [16] $end
$var wire 1 U inDataB [15] $end
$var wire 1 V inDataB [14] $end
$var wire 1 W inDataB [13] $end
$var wire 1 X inDataB [12] $end
$var wire 1 Y inDataB [11] $end
$var wire 1 Z inDataB [10] $end
$var wire 1 [ inDataB [9] $end
$var wire 1 \ inDataB [8] $end
$var wire 1 ] inDataB [7] $end
$var wire 1 ^ inDataB [6] $end
$var wire 1 _ inDataB [5] $end
$var wire 1 ` inDataB [4] $end
$var wire 1 a inDataB [3] $end
$var wire 1 b inDataB [2] $end
$var wire 1 c inDataB [1] $end
$var wire 1 d inDataB [0] $end
$var wire 1 e sopBi $end
$var wire 1 f eopBi $end
$var reg 32 Q! outDataA [31:0] $end
$var reg 1 R! sopAo $end
$var reg 1 S! eopAo $end
$var reg 32 T! outDataB [31:0] $end
$var reg 1 U! sopBo $end
$var reg 1 V! eopBo $end
$var reg 1 W! portAStall $end
$var reg 1 X! portBStall $end
$var wire 1 Y! fifo_wr_en [0] $end
$var wire 1 Z! fifo_wr_en [1] $end
$var wire 1 [! fifo_wr_data [0] $end
$var wire 1 \! fifo_wr_data [1] $end
$var wire 1 ]! fifo_wr_data [2] $end
$var wire 1 ^! fifo_wr_data [3] $end
$var wire 1 _! fifo_wr_data [4] $end
$var wire 1 `! fifo_wr_data [5] $end
$var wire 1 a! fifo_wr_data [6] $end
$var wire 1 b! fifo_wr_data [7] $end
$var wire 1 c! fifo_wr_data [8] $end
$var wire 1 d! fifo_wr_data [9] $end
$var wire 1 e! fifo_wr_data [10] $end
$var wire 1 f! fifo_wr_data [11] $end
$var wire 1 g! fifo_wr_data [12] $end
$var wire 1 h! fifo_wr_data [13] $end
$var wire 1 i! fifo_wr_data [14] $end
$var wire 1 j! fifo_wr_data [15] $end
$var wire 1 k! fifo_wr_data [16] $end
$var wire 1 l! fifo_wr_data [17] $end
$var wire 1 m! fifo_wr_data [18] $end
$var wire 1 n! fifo_wr_data [19] $end
$var wire 1 o! fifo_wr_data [20] $end
$var wire 1 p! fifo_wr_data [21] $end
$var wire 1 q! fifo_wr_data [22] $end
$var wire 1 r! fifo_wr_data [23] $end
$var wire 1 s! fifo_wr_data [24] $end
$var wire 1 t! fifo_wr_data [25] $end
$var wire 1 u! fifo_wr_data [26] $end
$var wire 1 v! fifo_wr_data [27] $end
$var wire 1 w! fifo_wr_data [28] $end
$var wire 1 x! fifo_wr_data [29] $end
$var wire 1 y! fifo_wr_data [30] $end
$var wire 1 z! fifo_wr_data [31] $end
$var wire 1 {! fifo_wr_data [32] $end
$var wire 1 |! fifo_wr_data [33] $end
$var wire 1 }! fifo_wr_data [34] $end
$var wire 1 ~! fifo_wr_data [35] $end
$var wire 1 !" fifo_wr_data [36] $end
$var wire 1 "" fifo_wr_data [37] $end
$var wire 1 #" fifo_wr_data [38] $end
$var wire 1 $" fifo_wr_data [39] $end
$var wire 1 %" fifo_wr_data [40] $end
$var wire 1 &" fifo_wr_data [41] $end
$var wire 1 '" fifo_wr_data [42] $end
$var wire 1 (" fifo_wr_data [43] $end
$var wire 1 )" fifo_wr_data [44] $end
$var wire 1 *" fifo_wr_data [45] $end
$var wire 1 +" fifo_wr_data [46] $end
$var wire 1 ," fifo_wr_data [47] $end
$var wire 1 -" fifo_wr_data [48] $end
$var wire 1 ." fifo_wr_data [49] $end
$var wire 1 /" fifo_wr_data [50] $end
$var wire 1 0" fifo_wr_data [51] $end
$var wire 1 1" fifo_wr_data [52] $end
$var wire 1 2" fifo_wr_data [53] $end
$var wire 1 3" fifo_wr_data [54] $end
$var wire 1 4" fifo_wr_data [55] $end
$var wire 1 5" fifo_wr_data [56] $end
$var wire 1 6" fifo_wr_data [57] $end
$var wire 1 7" fifo_wr_data [58] $end
$var wire 1 8" fifo_wr_data [59] $end
$var wire 1 9" fifo_wr_data [60] $end
$var wire 1 :" fifo_wr_data [61] $end
$var wire 1 ;" fifo_wr_data [62] $end
$var wire 1 <" fifo_wr_data [63] $end
$var wire 1 =" fifo_wr_data [64] $end
$var wire 1 >" fifo_wr_data [65] $end
$var wire 1 ?" fifo_wr_data [66] $end
$var wire 1 @" fifo_wr_data [67] $end
$var wire 1 A" fifo_rddata [0] $end
$var wire 1 B" fifo_rddata [1] $end
$var wire 1 C" fifo_rddata [2] $end
$var wire 1 D" fifo_rddata [3] $end
$var wire 1 E" fifo_rddata [4] $end
$var wire 1 F" fifo_rddata [5] $end
$var wire 1 G" fifo_rddata [6] $end
$var wire 1 H" fifo_rddata [7] $end
$var wire 1 I" fifo_rddata [8] $end
$var wire 1 J" fifo_rddata [9] $end
$var wire 1 K" fifo_rddata [10] $end
$var wire 1 L" fifo_rddata [11] $end
$var wire 1 M" fifo_rddata [12] $end
$var wire 1 N" fifo_rddata [13] $end
$var wire 1 O" fifo_rddata [14] $end
$var wire 1 P" fifo_rddata [15] $end
$var wire 1 Q" fifo_rddata [16] $end
$var wire 1 R" fifo_rddata [17] $end
$var wire 1 S" fifo_rddata [18] $end
$var wire 1 T" fifo_rddata [19] $end
$var wire 1 U" fifo_rddata [20] $end
$var wire 1 V" fifo_rddata [21] $end
$var wire 1 W" fifo_rddata [22] $end
$var wire 1 X" fifo_rddata [23] $end
$var wire 1 Y" fifo_rddata [24] $end
$var wire 1 Z" fifo_rddata [25] $end
$var wire 1 [" fifo_rddata [26] $end
$var wire 1 \" fifo_rddata [27] $end
$var wire 1 ]" fifo_rddata [28] $end
$var wire 1 ^" fifo_rddata [29] $end
$var wire 1 _" fifo_rddata [30] $end
$var wire 1 `" fifo_rddata [31] $end
$var wire 1 a" fifo_rddata [32] $end
$var wire 1 b" fifo_rddata [33] $end
$var wire 1 c" fifo_rddata [34] $end
$var wire 1 d" fifo_rddata [35] $end
$var wire 1 e" fifo_rddata [36] $end
$var wire 1 f" fifo_rddata [37] $end
$var wire 1 g" fifo_rddata [38] $end
$var wire 1 h" fifo_rddata [39] $end
$var wire 1 i" fifo_rddata [40] $end
$var wire 1 j" fifo_rddata [41] $end
$var wire 1 k" fifo_rddata [42] $end
$var wire 1 l" fifo_rddata [43] $end
$var wire 1 m" fifo_rddata [44] $end
$var wire 1 n" fifo_rddata [45] $end
$var wire 1 o" fifo_rddata [46] $end
$var wire 1 p" fifo_rddata [47] $end
$var wire 1 q" fifo_rddata [48] $end
$var wire 1 r" fifo_rddata [49] $end
$var wire 1 s" fifo_rddata [50] $end
$var wire 1 t" fifo_rddata [51] $end
$var wire 1 u" fifo_rddata [52] $end
$var wire 1 v" fifo_rddata [53] $end
$var wire 1 w" fifo_rddata [54] $end
$var wire 1 x" fifo_rddata [55] $end
$var wire 1 y" fifo_rddata [56] $end
$var wire 1 z" fifo_rddata [57] $end
$var wire 1 {" fifo_rddata [58] $end
$var wire 1 |" fifo_rddata [59] $end
$var wire 1 }" fifo_rddata [60] $end
$var wire 1 ~" fifo_rddata [61] $end
$var wire 1 !# fifo_rddata [62] $end
$var wire 1 "# fifo_rddata [63] $end
$var wire 1 ## fifo_rddata [64] $end
$var wire 1 $# fifo_rddata [65] $end
$var wire 1 %# fifo_rddata [66] $end
$var wire 1 &# fifo_rddata [67] $end
$var wire 1 '# fifo_empty [0] $end
$var wire 1 (# fifo_empty [1] $end
$var wire 1 )# fifo_full [0] $end
$var wire 1 *# fifo_full [1] $end

$scope module portA_in $end
$var parameter 32 +# FIFO_WIDTH $end
$var parameter 32 ,# FIFO_DEPTH $end
$var wire 1 O! clk $end
$var wire 1 P! rstN $end
$var wire 1 Y! write_en $end
$var wire 1 -# read_en $end
$var wire 1 |! data_in [33] $end
$var wire 1 {! data_in [32] $end
$var wire 1 z! data_in [31] $end
$var wire 1 y! data_in [30] $end
$var wire 1 x! data_in [29] $end
$var wire 1 w! data_in [28] $end
$var wire 1 v! data_in [27] $end
$var wire 1 u! data_in [26] $end
$var wire 1 t! data_in [25] $end
$var wire 1 s! data_in [24] $end
$var wire 1 r! data_in [23] $end
$var wire 1 q! data_in [22] $end
$var wire 1 p! data_in [21] $end
$var wire 1 o! data_in [20] $end
$var wire 1 n! data_in [19] $end
$var wire 1 m! data_in [18] $end
$var wire 1 l! data_in [17] $end
$var wire 1 k! data_in [16] $end
$var wire 1 j! data_in [15] $end
$var wire 1 i! data_in [14] $end
$var wire 1 h! data_in [13] $end
$var wire 1 g! data_in [12] $end
$var wire 1 f! data_in [11] $end
$var wire 1 e! data_in [10] $end
$var wire 1 d! data_in [9] $end
$var wire 1 c! data_in [8] $end
$var wire 1 b! data_in [7] $end
$var wire 1 a! data_in [6] $end
$var wire 1 `! data_in [5] $end
$var wire 1 _! data_in [4] $end
$var wire 1 ^! data_in [3] $end
$var wire 1 ]! data_in [2] $end
$var wire 1 \! data_in [1] $end
$var wire 1 [! data_in [0] $end
$var reg 34 .# data_out [33:0] $end
$var wire 1 '# empty $end
$var reg 1 /# tmp_empty $end
$var wire 1 )# full $end
$var reg 1 0# tmp_full $end
$var integer 32 1# write_ptr $end
$var integer 32 2# read_ptr $end
$upscope $end

$scope module portB_in $end
$var parameter 32 3# FIFO_WIDTH $end
$var parameter 32 4# FIFO_DEPTH $end
$var wire 1 O! clk $end
$var wire 1 P! rstN $end
$var wire 1 Z! write_en $end
$var wire 1 5# read_en $end
$var wire 1 @" data_in [33] $end
$var wire 1 ?" data_in [32] $end
$var wire 1 >" data_in [31] $end
$var wire 1 =" data_in [30] $end
$var wire 1 <" data_in [29] $end
$var wire 1 ;" data_in [28] $end
$var wire 1 :" data_in [27] $end
$var wire 1 9" data_in [26] $end
$var wire 1 8" data_in [25] $end
$var wire 1 7" data_in [24] $end
$var wire 1 6" data_in [23] $end
$var wire 1 5" data_in [22] $end
$var wire 1 4" data_in [21] $end
$var wire 1 3" data_in [20] $end
$var wire 1 2" data_in [19] $end
$var wire 1 1" data_in [18] $end
$var wire 1 0" data_in [17] $end
$var wire 1 /" data_in [16] $end
$var wire 1 ." data_in [15] $end
$var wire 1 -" data_in [14] $end
$var wire 1 ," data_in [13] $end
$var wire 1 +" data_in [12] $end
$var wire 1 *" data_in [11] $end
$var wire 1 )" data_in [10] $end
$var wire 1 (" data_in [9] $end
$var wire 1 '" data_in [8] $end
$var wire 1 &" data_in [7] $end
$var wire 1 %" data_in [6] $end
$var wire 1 $" data_in [5] $end
$var wire 1 #" data_in [4] $end
$var wire 1 "" data_in [3] $end
$var wire 1 !" data_in [2] $end
$var wire 1 ~! data_in [1] $end
$var wire 1 }! data_in [0] $end
$var reg 34 6# data_out [33:0] $end
$var wire 1 (# empty $end
$var reg 1 7# tmp_empty $end
$var wire 1 *# full $end
$var reg 1 8# tmp_full $end
$var integer 32 9# write_ptr $end
$var integer 32 :# read_ptr $end
$upscope $end

$scope module portA_fsm $end
$var parameter 32 ;# PORTA_ADDR $end
$var parameter 32 <# PORTB_ADDR $end
$var parameter 3 =# IDLE $end
$var parameter 3 ># DEST_ADDR_RCVD $end
$var parameter 3 ?# DATA_RCV $end
$var parameter 3 @# DONE $end
$var wire 1 O! clk $end
$var wire 1 P! rstN $end
$var wire 1 # data_in [31] $end
$var wire 1 $ data_in [30] $end
$var wire 1 % data_in [29] $end
$var wire 1 & data_in [28] $end
$var wire 1 ' data_in [27] $end
$var wire 1 ( data_in [26] $end
$var wire 1 ) data_in [25] $end
$var wire 1 * data_in [24] $end
$var wire 1 + data_in [23] $end
$var wire 1 , data_in [22] $end
$var wire 1 - data_in [21] $end
$var wire 1 . data_in [20] $end
$var wire 1 / data_in [19] $end
$var wire 1 0 data_in [18] $end
$var wire 1 1 data_in [17] $end
$var wire 1 2 data_in [16] $end
$var wire 1 3 data_in [15] $end
$var wire 1 4 data_in [14] $end
$var wire 1 5 data_in [13] $end
$var wire 1 6 data_in [12] $end
$var wire 1 7 data_in [11] $end
$var wire 1 8 data_in [10] $end
$var wire 1 9 data_in [9] $end
$var wire 1 : data_in [8] $end
$var wire 1 ; data_in [7] $end
$var wire 1 < data_in [6] $end
$var wire 1 = data_in [5] $end
$var wire 1 > data_in [4] $end
$var wire 1 ? data_in [3] $end
$var wire 1 @ data_in [2] $end
$var wire 1 A data_in [1] $end
$var wire 1 B data_in [0] $end
$var wire 1 C iSop $end
$var wire 1 D iEop $end
$var reg 1 A# wr_en $end
$var reg 34 B# data_out [33:0] $end
$var reg 3 C# nState [2:0] $end
$var reg 3 D# pState [2:0] $end
$var reg 32 E# dst_addr [31:0] $end
$var reg 32 F# src_addr [31:0] $end
$var reg 34 G# data_word [33:0] $end
$var reg 1 H# iSop_d $end
$var reg 1 I# iEop_d $end
$var reg 32 J# iData_d [31:0] $end
$upscope $end

$scope module portB_fsm $end
$var parameter 32 K# PORTA_ADDR $end
$var parameter 32 L# PORTB_ADDR $end
$var parameter 3 M# IDLE $end
$var parameter 3 N# DEST_ADDR_RCVD $end
$var parameter 3 O# DATA_RCV $end
$var parameter 3 P# DONE $end
$var wire 1 O! clk $end
$var wire 1 P! rstN $end
$var wire 1 E data_in [31] $end
$var wire 1 F data_in [30] $end
$var wire 1 G data_in [29] $end
$var wire 1 H data_in [28] $end
$var wire 1 I data_in [27] $end
$var wire 1 J data_in [26] $end
$var wire 1 K data_in [25] $end
$var wire 1 L data_in [24] $end
$var wire 1 M data_in [23] $end
$var wire 1 N data_in [22] $end
$var wire 1 O data_in [21] $end
$var wire 1 P data_in [20] $end
$var wire 1 Q data_in [19] $end
$var wire 1 R data_in [18] $end
$var wire 1 S data_in [17] $end
$var wire 1 T data_in [16] $end
$var wire 1 U data_in [15] $end
$var wire 1 V data_in [14] $end
$var wire 1 W data_in [13] $end
$var wire 1 X data_in [12] $end
$var wire 1 Y data_in [11] $end
$var wire 1 Z data_in [10] $end
$var wire 1 [ data_in [9] $end
$var wire 1 \ data_in [8] $end
$var wire 1 ] data_in [7] $end
$var wire 1 ^ data_in [6] $end
$var wire 1 _ data_in [5] $end
$var wire 1 ` data_in [4] $end
$var wire 1 a data_in [3] $end
$var wire 1 b data_in [2] $end
$var wire 1 c data_in [1] $end
$var wire 1 d data_in [0] $end
$var wire 1 e iSop $end
$var wire 1 f iEop $end
$var reg 1 Q# wr_en $end
$var reg 34 R# data_out [33:0] $end
$var reg 3 S# nState [2:0] $end
$var reg 3 T# pState [2:0] $end
$var reg 32 U# dst_addr [31:0] $end
$var reg 32 V# src_addr [31:0] $end
$var reg 34 W# data_word [33:0] $end
$var reg 1 X# iSop_d $end
$var reg 1 Y# iEop_d $end
$var reg 32 Z# iData_d [31:0] $end
$upscope $end
$upscope $end
$upscope $end
$enddefinitions $end
#0
$dumpvars
0!
0"
bx Q!
xR!
xS!
bx T!
xU!
xV!
xW!
xX!
b0 .#
1/#
00#
b0 6#
17#
08#
xA#
bx B#
b0 C#
bx D#
bx E#
bx F#
bx G#
xH#
xI#
bx J#
xQ#
bx R#
b0 S#
bx T#
bx U#
bx V#
bx W#
xX#
xY#
bx Z#
b100010 +#
b100000 ,#
b100010 3#
b100000 4#
b1010101111001101 ;#
b1001000110100 <#
b0 =#
b1 >#
b10 ?#
b11 @#
b1010101111001101 K#
b1001000110100 L#
b0 M#
b1 N#
b10 O#
b11 P#
b0 1#
b0 2#
b0 9#
b0 :#
zB
zA
z@
z?
z>
z=
z<
z;
z:
z9
z8
z7
z6
z5
z4
z3
z2
z1
z0
z/
z.
z-
z,
z+
z*
z)
z(
z'
z&
z%
z$
z#
zC
zD
zd
zc
zb
za
z`
z_
z^
z]
z\
z[
zZ
zY
zX
zW
zV
zU
zT
zS
zR
zQ
zP
zO
zN
zM
zL
zK
zJ
zI
zH
zG
zF
zE
ze
zf
x(!
x'!
x&!
x%!
x$!
x#!
x"!
x!!
x~
x}
x|
x{
xz
xy
xx
xw
xv
xu
xt
xs
xr
xq
xp
xo
xn
xm
xl
xk
xj
xi
xh
xg
x)!
x*!
xJ!
xI!
xH!
xG!
xF!
xE!
xD!
xC!
xB!
xA!
x@!
x?!
x>!
x=!
x<!
x;!
x:!
x9!
x8!
x7!
x6!
x5!
x4!
x3!
x2!
x1!
x0!
x/!
x.!
x-!
x,!
x+!
xK!
xL!
xM!
xN!
xY!
xZ!
x[!
x\!
x]!
x^!
x_!
x`!
xa!
xb!
xc!
xd!
xe!
xf!
xg!
xh!
xi!
xj!
xk!
xl!
xm!
xn!
xo!
xp!
xq!
xr!
xs!
xt!
xu!
xv!
xw!
xx!
xy!
xz!
x{!
x|!
x}!
x~!
x!"
x""
x#"
x$"
x%"
x&"
x'"
x("
x)"
x*"
x+"
x,"
x-"
x."
x/"
x0"
x1"
x2"
x3"
x4"
x5"
x6"
x7"
x8"
x9"
x:"
x;"
x<"
x="
x>"
x?"
x@"
0A"
0B"
0C"
0D"
0E"
0F"
0G"
0H"
0I"
0J"
0K"
0L"
0M"
0N"
0O"
0P"
0Q"
0R"
0S"
0T"
0U"
0V"
0W"
0X"
0Y"
0Z"
0["
0\"
0]"
0^"
0_"
0`"
0a"
0b"
0c"
0d"
0e"
0f"
0g"
0h"
0i"
0j"
0k"
0l"
0m"
0n"
0o"
0p"
0q"
0r"
0s"
0t"
0u"
0v"
0w"
0x"
0y"
0z"
0{"
0|"
0}"
0~"
0!#
0"#
0##
0$#
0%#
0&#
1'#
1(#
0)#
0*#
0P!
0O!
x5#
x-#
$end
#5
1!
1O!
b0 D#
zH#
zI#
bz J#
0A#
b0 T#
zX#
zY#
bz Z#
0Q#
0R!
0U!
0S!
0V!
0W!
0X!
0Y!
0Z!
0)!
0K!
0*!
0L!
0M!
0N!
#10
0!
0O!
#15
1!
1O!
#20
0!
0O!
#25
1!
1O!
#30
0!
0O!
#35
1!
1O!
#40
0!
0O!
#45
1!
1O!
1"
1P!
#50
0!
0O!
#55
1!
1O!
#57
1C
0D
0B
0A
1@
0?
1>
1=
0<
0;
0:
19
08
07
16
05
04
03
02
01
00
0/
0.
0-
0,
0+
0*
0)
0(
0'
0&
0%
0$
0#
b1001000110100 E#
b1 C#
#60
0!
0O!
#65
1!
1O!
b1 D#
1H#
0I#
b1001000110100 J#
b0 C#
b1001000110100 F#
b10 C#
#67
0C
1B
1?
0>
0=
1<
1;
1:
17
06
15
13
b0 C#
b1010101111001101 F#
b10 C#
#70
0!
0O!
#75
1!
1O!
b100000000000000000001001000110100 B#
0[!
0\!
1]!
0^!
1_!
1`!
0a!
0b!
0c!
1d!
0e!
0f!
1g!
0h!
0i!
0j!
0k!
0l!
0m!
0n!
0o!
0p!
0q!
0r!
0s!
0t!
0u!
0v!
0w!
0x!
0y!
0z!
1{!
0|!
b10 D#
0H#
b1010101111001101 J#
1A#
1Y!
b0 C#
b10 C#
#77
1D
0B
0?
1>
1=
0<
0;
0:
07
16
05
03
12
10
1/
1,
1+
1*
1)
1'
1%
1#
b0 C#
b11 C#
#80
0!
0O!
#85
1!
1O!
b1 1#
b1010101111001101 B#
1[!
1^!
0_!
0`!
1a!
1b!
1c!
1f!
0g!
1h!
1j!
0{!
b11 D#
1I#
b10101011110011010001001000110100 J#
0/#
0'#
b0 C#
#87
0D
#90
0!
0O!
#95
1!
1O!
b1010101011110011010001001000110100 B#
b10 1#
0[!
0^!
1_!
1`!
0a!
0b!
0c!
0f!
1g!
0h!
0j!
1k!
1m!
1n!
1q!
1r!
1s!
1t!
1v!
1x!
1z!
1|!
b0 D#
0I#
1-#
#97
1e
0f
0d
0c
1b
0a
1`
1_
0^
0]
0\
1[
0Z
0Y
1X
0W
0V
0U
0T
0S
0R
0Q
0P
0O
0N
0M
0L
0K
0J
0I
0H
0G
0F
0E
b1001000110100 U#
b1 S#
#100
0!
0O!
#105
1!
1O!
b11 1#
b1 2#
b1 T#
1X#
0Y#
b1001000110100 Z#
b100000000000000000001001000110100 .#
0A#
1C"
1E"
1F"
1J"
1M"
1a"
0Y!
b0 S#
b1001000110100 V#
b10 S#
#107
0e
b0 S#
b10 S#
#110
0!
0O!
#115
1!
1O!
b100000000000000000001001000110100 R#
b10 2#
0}!
0~!
1!"
0""
1#"
1$"
0%"
0&"
0'"
1("
0)"
0*"
1+"
0,"
0-"
0."
0/"
00"
01"
02"
03"
04"
05"
06"
07"
08"
09"
0:"
0;"
0<"
0="
0>"
1?"
0@"
b1001000110100 T!
1U!
b10 T#
0X#
1Q#
b1010101111001101 .#
1Z!
1A"
1D"
0E"
0F"
1G"
1H"
1I"
1L"
0M"
1N"
1P"
0a"
0J!
0I!
1H!
0G!
1F!
1E!
0D!
0C!
0B!
1A!
0@!
0?!
1>!
0=!
0<!
0;!
0:!
09!
08!
07!
06!
05!
04!
03!
02!
01!
00!
0/!
0.!
0-!
0,!
0+!
1K!
b0 S#
b10 S#
#117
1f
1T
1R
1Q
1N
1M
1L
1K
1I
1G
1E
b0 S#
b11 S#
#120
0!
0O!
#125
1!
1O!
b1 9#
b11 2#
b1001000110100 R#
0?"
b11 T#
1Y#
b10101011110011010001001000110100 Z#
07#
b1010101011110011010001001000110100 .#
1/#
0U!
b1010101111001101 T!
0(#
0A"
0D"
1E"
1F"
0G"
0H"
0I"
0L"
1M"
0N"
0P"
1Q"
1S"
1T"
1W"
1X"
1Y"
1Z"
1\"
1^"
1`"
1b"
1'#
0K!
1J!
1G!
0F!
0E!
1D!
1C!
1B!
1?!
0>!
1=!
1;!
b0 S#
#127
0f
#130
0!
0O!
#135
1!
1O!
b1010101011110011010001001000110100 R#
b10 9#
1/"
11"
12"
15"
16"
17"
18"
1:"
1<"
1>"
1@"
b10101011110011010001001000110100 T!
1V!
b0 T#
0Y#
0-#
15#
0J!
0G!
1F!
1E!
0D!
0C!
0B!
0?!
1>!
0=!
0;!
1:!
18!
17!
14!
13!
12!
11!
1/!
1-!
1+!
1L!
#137
1e
0T
0R
0Q
0N
0M
0L
0K
0I
0G
0E
b1 S#
#140
0!
0O!
#145
1!
1O!
b11 9#
b1 :#
b1 T#
1X#
b1001000110100 Z#
0V!
b100000000000000000001001000110100 6#
0Q#
1e"
1g"
1h"
1l"
1o"
1%#
0Z!
0L!
b0 S#
b10 S#
#147
0e
b0 S#
b10 S#
#150
0!
0O!
#155
1!
1O!
b100000000000000000001001000110100 R#
b10 :#
0/"
01"
02"
05"
06"
07"
08"
0:"
0<"
0>"
1?"
0@"
b1001000110100 T!
1U!
b10 T#
0X#
1Q#
b1001000110100 6#
1Z!
0%#
0:!
08!
07!
04!
03!
02!
01!
0/!
0-!
0+!
1K!
b0 S#
b10 S#
#157
1f
1T
1R
1Q
1N
1M
1L
1K
1I
1G
1E
b0 S#
b11 S#
#160
0!
0O!
